<svg xmlns="http://www.w3.org/2000/svg" width="19" height="24" viewBox="0 0 19 24" stroke="#FFF">
    <g fill="none" fill-rule="evenodd" stroke-linecap="round" stroke-linejoin="round">
        <path d="M16.5 2.5h2v21H.5v-21h2"/>
        <path d="M11.5 2.5a2 2 0 0 0-4 0h-3v3h10v-3h-3z"/>
        <path d="M4.5 4.5h-2v17h10v-4h4v-13h-2M16.5 17.5l-4 4M5.5 9.5h8M5.5 11.5h8M5.5 13.5h8M5.5 15.5H10"/>
    </g>
</svg>
