id,path,key,table,through,role_required
1,user,password,UserPassword,,
8,user,zipCode,Address,UserAddress,
9,user,latitude ,Address,UserAddress,
10,user,longitude,Address,UserAddress,
4,user,street   ,Address,UserAddress,
5,user,number   ,Address,UserAddress,
6,user,entrance ,Address,UserAddress,
7,user,floor    ,Address,UserAddress,
2,user,country  ,Address,UserAddress,
3,user,city     ,Address,UserAddress,
