{
    "Documents": [
        "active",
        "frozen",
        "blocked"
    ],
    "DocumentHistory": [
        "active",
        "frozen",
        "blocked"
    ],
    "Business": [
        "active",
        "frozen",
        "locked",
        "pending"
    ],
    "UserBusiness": [
        "active",
        "frozen",
        "blocked",
        "deleted"
    ],
    "User": [
        "active",
        "frozen",
        "blocked"
    ],
    "UserPassword": [
        "active",
        "inactive"
    ],
    "UserContact": [
        "active",
        "frozen",
        "blocked"
    ],
    "Address": [
        "active",
        "frozen",
        "blocked"
    ],
    "BusinessAddress": [
        "active",
        "frozen",
        "blocked"
    ],
    "UserAddress": [
        "active",
        "frozen",
        "blocked"
    ],
    "Supplier": [
        "active",
        "inactive",
        "frozen",
        "blocked"
    ],
    "SupplierUser": [
        "active",
        "frozen",
        "blocked"
    ],
    "Product": [
        "active",
        "inactive"
    ],
    "ProductPrice": [
        "active",
        "inactive"
    ],
    "BusinessProduct": [
        "active",
        "frozen",
        "blocked"
    ],
    "BusinessSupplier": [
        "active",
        "frozen",
        "blocked"
    ],
    "Transaction": [
        "opened",
        "closed",
        "succeeded",
        "failed"
    ],
    "TransactionLog": [
        "active",
        "frozen",
        "blocked"
    ],
    "BusinessTags": [
        "active",
        "frozen",
        "blocked"
    ],
    "BranchBankAccount": [
        "active",
        "frozen",
        "blocked"
    ],
    "BankAccounts": [
        "active",
        "frozen",
        "blocked"
    ],
    "BusinessFinance": [
        "active",
        "frozen",
        "blocked"
    ],
    "CreditCards": [
        "active",
        "frozen",
        "blocked"
    ],
    "ExternalAccountingProductCodes": [
        "active",
        "frozen",
        "blocked"
    ],
    "ManualCard": [
        "unused",
        "used"
    ],
    "Gift": [
        "active",
        "inactive"
    ],
    "GiftOrder": [
        "waiting_for_delivery",
        "in_delivery_processes",
        "sent",
        "canceled"
    ],
    "BarcodeType": [
        "לא פעיל",
        "פעיל"
    ]
}